LibVMI Suggestion: set win_ntoskrnl=0x2611000 in libvmi.conf for faster startup.
LibVMI Suggestion: set win_kdbg=0x128be8 in libvmi.conf for faster startup.
LibVMI Suggestion: set win_kdvb=0x82739be8 in libvmi.conf for faster startup.
Found PEB at 7ffd6000
Heap:	0	 0x490000

NOP Sled Detected at 533a88 5000
NOP Sled Detected at 555d80 3332
NOP Sled Detected at 56dbd8 3380
NOP Sled Detected at 574f38 3344
Heap:	1	 0x10000
Heap:	2	 0x170000

NOP Sled Detected at 171400 291
Heap:	3	 0xad0000
Heap:	4	 0x28e0000
Heap:	5	 0xb80000
Heap:	6	 0x1a50000

NOP Sled Detected at 1a51400 291
Heap:	7	 0x36d0000

NOP Sled Detected at 36d1278 291
