LibVMI Suggestion: set win_ntoskrnl=0x2643000 in libvmi.conf for faster startup.
LibVMI Suggestion: set win_kdbg=0x12ac28 in libvmi.conf for faster startup.
LibVMI Suggestion: set win_kdvb=0x8276dc28 in libvmi.conf for faster startup.
tasks_offset is 184
name_offset is 364
pid_offset is 180
Walking Process PID: [4] 
Walking Process PID: [220] 
Walking Process PID: [304] 
Walking Process PID: [340] 
Walking Process PID: [352] 
Walking Process PID: [380] 
Walking Process PID: [436] 
Walking Process PID: [460] 
Walking Process PID: [468] 
Walking Process PID: [576] 
Walking Process PID: [636] 
Walking Process PID: [824] 
Walking Process PID: [864] 
Walking Process PID: [888] 
Walking Process PID: [924] 
Walking Process PID: [1024] 
Walking Process PID: [1064] 
Walking Process PID: [1376] 
Walking Process PID: [1404] 
Walking Process PID: [1884] 
Walking Process PID: [1956] 
Walking Process PID: [1524] 
Walking Process PID: [1852] 
Walking Process PID: [1828] 
Walking Process PID: [1940] 
Walking Process PID: [944] 
Walking Process PID: [3384] 
Walking Process PID: [2520] 
Walking Process PID: [2640] 
Walking Process PID: [2556] 
Walking Process PID: [2060] 
Walking Process PID: [2688] 
Walking Process PID: [3180] 
Walking Process PID: [3224] 
Walking Process PID: [356] 
Walking Process PID: [2296] 
Walking Process PID: [560] 
Walking Process PID: [3940] 
Walking Process PID: [2228] 
Walking Process PID: [3592] 
Walking Process PID: [1788] 
Walking Process PID: [1864] 
Walking Process PID: [2836] 
Walking Process PID: [3752] 
Walking Process PID: [3256] 
Walking Process PID: [3956] 
00000000|  80 40 68 e6 c1 55 00 00  00 30 6f 02 00 e0 74 02   .@h..U...0o...t.
00000010|  00 e0 6a 02 00 90 70 02  00 40 76 02 00 40 6c 02   ..j...p..@v..@l.
00000020|  00 f0 71 02 00 00 00 00  00 a0 6d 02 00 50 73 02   ..q.......m..Ps.
00000030|  00 50 69 02 00 00 6f 02  00 b0 74 02 00 b0 6a 02   .Pi...o...t...j.
00000040|  00 60 70 02 00 10 76 02  00 10 6c 02 00 c0 71 02   .`p...v...l...q.
00000050|  00 00 00 00 00 70 6d 02  00 20 73 02 00 20 69 02   .....pm.. s.. i.
00000060|  00 d0 6e 02 00 80 74 02  00 80 6a 02 00 30 70 02   ..n...t...j..0p.
00000070|  00 e0 75 02 00 e0 6b 02  00 90 71 02 00 00 00 00   ..u...k...q.....
00000080|  00 40 6d 02 00 f0 72 02  00 f0 68 02 00 a0 6e 02   .@m...r...h...n.
00000090|  00 50 74 02 00 50 6a 02  00 00 70 02 00 b0 75 02   .Pt..Pj...p...u.
000000a0|  00 b0 6b 02 00 60 71 02  00 00 00 00 00 10 6d 02   ..k..`q.......m.
000000b0|  00 c0 72 02 00 c0 68 02  00 70 6e 02 00 20 74 02   ..r...h..pn.. t.
000000c0|  00 20 6a 02 00 d0 6f 02  00 80 75 02 00 80 6b 02   . j...o...u...k.
000000d0|  00 30 71 02 00 e0 76 02  00 e0 6c 02 00 90 72 02   .0q...v...l...r.
000000e0|  00 90 68 02 00 40 6e 02  00 f0 73 02 00 f0 69 02   ..h..@n...s...i.
000000f0|  00 a0 6f 02 00 50 75 02  00 50 6b 02 00 00 71 02   ..o..Pu..Pk...q.
00000100|  00 b0 76 02 00 b0 6c 02  00 60 72 02 00 60 68 02   ..v...l..`r..`h.
00000110|  00 10 6e 02 00 c0 73 02  00 c0 69 02 00 70 6f 02   ..n...s...i..po.
00000120|  00 20 75 02 00 20 6b 02  00 d0 70 02 00 80 76 02   . u.. k...p...v.
00000130|  00 80 6c 02 00 30 72 02  00 30 68 02 00 e0 6d 02   ..l..0r..0h...m.
00000140|  00 90 73 02 00 90 69 02  00 40 6f 02 00 f0 74 02   ..s...i..@o...t.
00000150|  00 f0 6a 02 00 a0 70 02  00 50 76 02 00 50 6c 02   ..j...p..Pv..Pl.
00000160|  00 00 72 02 00 00 00 00  00 b0 6d 02 00 60 73 02   ..r.......m..`s.
00000170|  00 60 69 02 00 10 6f 02  00 c0 74 02 00 c0 6a 02   .`i...o...t...j.
00000180|  00 70 70 02 00 20 76 02  00 20 6c 02 00 d0 71 02   .pp.. v.. l...q.
00000190|  00 00 00 00 00 80 6d 02  00 30 73 02 00 30 69 02   ......m..0s..0i.
000001a0|  00 e0 6e 02 00 90 74 02  00 90 6a 02 00 40 70 02   ..n...t...j..@p.
000001b0|  00 f0 75 02 00 f0 6b 02  00 a0 71 02 00 00 00 00   ..u...k...q.....
000001c0|  00 50 6d 02 00 00 73 02  00 00 69 02 00 b0 6e 02   .Pm...s...i...n.
000001d0|  00 60 74 02 00 60 6a 02  00 10 70 02 00 c0 75 02   .`t..`j...p...u.
000001e0|  00 c0 6b 02 00 70 71 02  00 00 00 00 00 20 6d 02   ..k..pq...... m.
000001f0|  00 d0 72 02 00 d0 68 02  00 80 6e 02 00 30 74 02   ..r...h...n..0t.
00000200|  00 30 6a 02 00 e0 6f 02  00 90 75 02 00 90 6b 02   .0j...o...u...k.
00000210|  00 40 71 02 00 00 00 00  00 f0 6c 02 00 a0 72 02   .@q.......l...r.
00000220|  00 a0 68 02 00 50 6e 02  00 00 74 02 00 00 6a 02   ..h..Pn...t...j.
00000230|  00 b0 6f 02 00 60 75 02  00 60 6b 02 00 f0 1c 00   ..o..`u..`k.....
00000240|  00 c0 76 02 00 c0 6c 02  00 70 72 02 00 70 68 02   ..v...l..pr..ph.
00000250|  00 20 6e 02 00 d0 73 02  00 d0 69 02 00 80 6f 02   . n...s...i...o.
00000260|  00 30 75 02 00 10 71 02  00 e0 70 02 00 90 76 02   .0u...q...p...v.
00000270|  00 90 6c 02 00 40 72 02  00 40 68 02 00 f0 6d 02   ..l..@r..@h...m.
00000280|  00 a0 73 02 00 a0 69 02  00 50 6f 02 00 00 75 02   ..s...i..Po...u.
00000290|  00 00 6b 02 00 b0 70 02  00 60 76 02 00 60 6c 02   ..k...p..`v..`l.
000002a0|  00 10 72 02 00 10 68 02  00 c0 6d 02 00 70 73 02   ..r...h...m..ps.
000002b0|  00 70 69 02 00 20 6f 02  00 d0 74 02 00 d0 6a 02   .pi.. o...t...j.
000002c0|  00 80 70 02 00 30 76 02  00 30 6c 02 00 e0 71 02   ..p..0v..0l...q.
000002d0|  00 00 00 00 00 90 6d 02  00 40 73 02 00 40 6a 02   ......m..@s..@j.
000002e0|  00 f0 6e 02 00 a0 74 02  00 a0 6a 02 00 50 70 02   ..n...t...j..Pp.
000002f0|  00 00 76 02 00 00 6c 02  00 b0 71 02 00 00 00 00   ..v...l...q.....
00000300|  00 60 6d 02 00 10 73 02  00 10 69 02 00 c0 6e 02   .`m...s...i...n.
00000310|  00 70 74 02 00 70 6a 02  00 20 70 02 00 d0 75 02   .pt..pj.. p...u.
00000320|  00 d0 6b 02 00 80 71 02  00 00 00 00 00 30 6d 02   ..k...q......0m.
00000330|  00 e0 72 02 00 e0 68 02  00 90 6e 02 00 40 74 02   ..r...h...n..@t.
00000340|  00 30 6b 02 00 f0 6f 02  00 a0 75 02 00 a0 6b 02   .0k...o...u...k.
00000350|  00 50 71 02 00 50 68 02  00 00 6d 02 00 b0 72 02   .Pq..Ph...m...r.
00000360|  00 b0 68 02 00 60 6e 02  00 10 74 02 00 10 6a 02   ..h..`n...t...j.
00000370|  00 c0 6f 02 00 70 75 02  00 70 6b 02 00 20 71 02   ..o..pu..pk.. q.
00000380|  00 d0 76 02 00 d0 6c 02  00 80 72 02 00 80 68 02   ..v...l...r...h.
00000390|  00 30 6e 02 00 e0 73 02  00 e0 69 02 00 90 6f 02   .0n...s...i...o.
000003a0|  00 40 75 02 00 40 6b 02  00 f0 70 02 00 a0 76 02   .@u..@k...p...v.
000003b0|  00 80 18 00 00 50 72 02  00 40 69 02 00 00 6e 02   .....Pr..@i...n.
000003c0|  00 b0 73 02 00 b0 69 02  00 60 6f 02 00 10 75 02   ..s...i..`o...u.
000003d0|  00 10 6b 02 00 c0 70 02  00 70 76 02 00 50 18 00   ..k...p..pv..P..
000003e0|  00 20 72 02 00 20 68 02                            . r.. h.
Resuming the VM
Cleaning up
